RISC-V Pipelined Processor/RISC-V/dump.vcd
$date
	Sat May  8 12:15:41 2021
$end
$version
	QuestaSim Version 2020.1_1
$end
$timescale
	1ns
$end

$scope module tb $end
$var reg 1 ! clk $end
$var reg 1 " reset $end
$var wire 1 # element1 [63] $end
$var wire 1 $ element1 [62] $end
$var wire 1 % element1 [61] $end
$var wire 1 & element1 [60] $end
$var wire 1 ' element1 [59] $end
$var wire 1 ( element1 [58] $end
$var wire 1 ) element1 [57] $end
$var wire 1 * element1 [56] $end
$var wire 1 + element1 [55] $end
$var wire 1 , element1 [54] $end
$var wire 1 - element1 [53] $end
$var wire 1 . element1 [52] $end
$var wire 1 / element1 [51] $end
$var wire 1 0 element1 [50] $end
$var wire 1 1 element1 [49] $end
$var wire 1 2 element1 [48] $end
$var wire 1 3 element1 [47] $end
$var wire 1 4 element1 [46] $end
$var wire 1 5 element1 [45] $end
$var wire 1 6 element1 [44] $end
$var wire 1 7 element1 [43] $end
$var wire 1 8 element1 [42] $end
$var wire 1 9 element1 [41] $end
$var wire 1 : element1 [40] $end
$var wire 1 ; element1 [39] $end
$var wire 1 < element1 [38] $end
$var wire 1 = element1 [37] $end
$var wire 1 > element1 [36] $end
$var wire 1 ? element1 [35] $end
$var wire 1 @ element1 [34] $end
$var wire 1 A element1 [33] $end
$var wire 1 B element1 [32] $end
$var wire 1 C element1 [31] $end
$var wire 1 D element1 [30] $end
$var wire 1 E element1 [29] $end
$var wire 1 F element1 [28] $end
$var wire 1 G element1 [27] $end
$var wire 1 H element1 [26] $end
$var wire 1 I element1 [25] $end
$var wire 1 J element1 [24] $end
$var wire 1 K element1 [23] $end
$var wire 1 L element1 [22] $end
$var wire 1 M element1 [21] $end
$var wire 1 N element1 [20] $end
$var wire 1 O element1 [19] $end
$var wire 1 P element1 [18] $end
$var wire 1 Q element1 [17] $end
$var wire 1 R element1 [16] $end
$var wire 1 S element1 [15] $end
$var wire 1 T element1 [14] $end
$var wire 1 U element1 [13] $end
$var wire 1 V element1 [12] $end
$var wire 1 W element1 [11] $end
$var wire 1 X element1 [10] $end
$var wire 1 Y element1 [9] $end
$var wire 1 Z element1 [8] $end
$var wire 1 [ element1 [7] $end
$var wire 1 \ element1 [6] $end
$var wire 1 ] element1 [5] $end
$var wire 1 ^ element1 [4] $end
$var wire 1 _ element1 [3] $end
$var wire 1 ` element1 [2] $end
$var wire 1 a element1 [1] $end
$var wire 1 b element1 [0] $end
$var wire 1 c element2 [63] $end
$var wire 1 d element2 [62] $end
$var wire 1 e element2 [61] $end
$var wire 1 f element2 [60] $end
$var wire 1 g element2 [59] $end
$var wire 1 h element2 [58] $end
$var wire 1 i element2 [57] $end
$var wire 1 j element2 [56] $end
$var wire 1 k element2 [55] $end
$var wire 1 l element2 [54] $end
$var wire 1 m element2 [53] $end
$var wire 1 n element2 [52] $end
$var wire 1 o element2 [51] $end
$var wire 1 p element2 [50] $end
$var wire 1 q element2 [49] $end
$var wire 1 r element2 [48] $end
$var wire 1 s element2 [47] $end
$var wire 1 t element2 [46] $end
$var wire 1 u element2 [45] $end
$var wire 1 v element2 [44] $end
$var wire 1 w element2 [43] $end
$var wire 1 x element2 [42] $end
$var wire 1 y element2 [41] $end
$var wire 1 z element2 [40] $end
$var wire 1 { element2 [39] $end
$var wire 1 | element2 [38] $end
$var wire 1 } element2 [37] $end
$var wire 1 ~ element2 [36] $end
$var wire 1 !! element2 [35] $end
$var wire 1 "! element2 [34] $end
$var wire 1 #! element2 [33] $end
$var wire 1 $! element2 [32] $end
$var wire 1 %! element2 [31] $end
$var wire 1 &! element2 [30] $end
$var wire 1 '! element2 [29] $end
$var wire 1 (! element2 [28] $end
$var wire 1 )! element2 [27] $end
$var wire 1 *! element2 [26] $end
$var wire 1 +! element2 [25] $end
$var wire 1 ,! element2 [24] $end
$var wire 1 -! element2 [23] $end
$var wire 1 .! element2 [22] $end
$var wire 1 /! element2 [21] $end
$var wire 1 0! element2 [20] $end
$var wire 1 1! element2 [19] $end
$var wire 1 2! element2 [18] $end
$var wire 1 3! element2 [17] $end
$var wire 1 4! element2 [16] $end
$var wire 1 5! element2 [15] $end
$var wire 1 6! element2 [14] $end
$var wire 1 7! element2 [13] $end
$var wire 1 8! element2 [12] $end
$var wire 1 9! element2 [11] $end
$var wire 1 :! element2 [10] $end
$var wire 1 ;! element2 [9] $end
$var wire 1 <! element2 [8] $end
$var wire 1 =! element2 [7] $end
$var wire 1 >! element2 [6] $end
$var wire 1 ?! element2 [5] $end
$var wire 1 @! element2 [4] $end
$var wire 1 A! element2 [3] $end
$var wire 1 B! element2 [2] $end
$var wire 1 C! element2 [1] $end
$var wire 1 D! element2 [0] $end
$var wire 1 E! element3 [63] $end
$var wire 1 F! element3 [62] $end
$var wire 1 G! element3 [61] $end
$var wire 1 H! element3 [60] $end
$var wire 1 I! element3 [59] $end
$var wire 1 J! element3 [58] $end
$var wire 1 K! element3 [57] $end
$var wire 1 L! element3 [56] $end
$var wire 1 M! element3 [55] $end
$var wire 1 N! element3 [54] $end
$var wire 1 O! element3 [53] $end
$var wire 1 P! element3 [52] $end
$var wire 1 Q! element3 [51] $end
$var wire 1 R! element3 [50] $end
$var wire 1 S! element3 [49] $end
$var wire 1 T! element3 [48] $end
$var wire 1 U! element3 [47] $end
$var wire 1 V! element3 [46] $end
$var wire 1 W! element3 [45] $end
$var wire 1 X! element3 [44] $end
$var wire 1 Y! element3 [43] $end
$var wire 1 Z! element3 [42] $end
$var wire 1 [! element3 [41] $end
$var wire 1 \! element3 [40] $end
$var wire 1 ]! element3 [39] $end
$var wire 1 ^! element3 [38] $end
$var wire 1 _! element3 [37] $end
$var wire 1 `! element3 [36] $end
$var wire 1 a! element3 [35] $end
$var wire 1 b! element3 [34] $end
$var wire 1 c! element3 [33] $end
$var wire 1 d! element3 [32] $end
$var wire 1 e! element3 [31] $end
$var wire 1 f! element3 [30] $end
$var wire 1 g! element3 [29] $end
$var wire 1 h! element3 [28] $end
$var wire 1 i! element3 [27] $end
$var wire 1 j! element3 [26] $end
$var wire 1 k! element3 [25] $end
$var wire 1 l! element3 [24] $end
$var wire 1 m! element3 [23] $end
$var wire 1 n! element3 [22] $end
$var wire 1 o! element3 [21] $end
$var wire 1 p! element3 [20] $end
$var wire 1 q! element3 [19] $end
$var wire 1 r! element3 [18] $end
$var wire 1 s! element3 [17] $end
$var wire 1 t! element3 [16] $end
$var wire 1 u! element3 [15] $end
$var wire 1 v! element3 [14] $end
$var wire 1 w! element3 [13] $end
$var wire 1 x! element3 [12] $end
$var wire 1 y! element3 [11] $end
$var wire 1 z! element3 [10] $end
$var wire 1 {! element3 [9] $end
$var wire 1 |! element3 [8] $end
$var wire 1 }! element3 [7] $end
$var wire 1 ~! element3 [6] $end
$var wire 1 !" element3 [5] $end
$var wire 1 "" element3 [4] $end
$var wire 1 #" element3 [3] $end
$var wire 1 $" element3 [2] $end
$var wire 1 %" element3 [1] $end
$var wire 1 &" element3 [0] $end
$var wire 1 '" element4 [63] $end
$var wire 1 (" element4 [62] $end
$var wire 1 )" element4 [61] $end
$var wire 1 *" element4 [60] $end
$var wire 1 +" element4 [59] $end
$var wire 1 ," element4 [58] $end
$var wire 1 -" element4 [57] $end
$var wire 1 ." element4 [56] $end
$var wire 1 /" element4 [55] $end
$var wire 1 0" element4 [54] $end
$var wire 1 1" element4 [53] $end
$var wire 1 2" element4 [52] $end
$var wire 1 3" element4 [51] $end
$var wire 1 4" element4 [50] $end
$var wire 1 5" element4 [49] $end
$var wire 1 6" element4 [48] $end
$var wire 1 7" element4 [47] $end
$var wire 1 8" element4 [46] $end
$var wire 1 9" element4 [45] $end
$var wire 1 :" element4 [44] $end
$var wire 1 ;" element4 [43] $end
$var wire 1 <" element4 [42] $end
$var wire 1 =" element4 [41] $end
$var wire 1 >" element4 [40] $end
$var wire 1 ?" element4 [39] $end
$var wire 1 @" element4 [38] $end
$var wire 1 A" element4 [37] $end
$var wire 1 B" element4 [36] $end
$var wire 1 C" element4 [35] $end
$var wire 1 D" element4 [34] $end
$var wire 1 E" element4 [33] $end
$var wire 1 F" element4 [32] $end
$var wire 1 G" element4 [31] $end
$var wire 1 H" element4 [30] $end
$var wire 1 I" element4 [29] $end
$var wire 1 J" element4 [28] $end
$var wire 1 K" element4 [27] $end
$var wire 1 L" element4 [26] $end
$var wire 1 M" element4 [25] $end
$var wire 1 N" element4 [24] $end
$var wire 1 O" element4 [23] $end
$var wire 1 P" element4 [22] $end
$var wire 1 Q" element4 [21] $end
$var wire 1 R" element4 [20] $end
$var wire 1 S" element4 [19] $end
$var wire 1 T" element4 [18] $end
$var wire 1 U" element4 [17] $end
$var wire 1 V" element4 [16] $end
$var wire 1 W" element4 [15] $end
$var wire 1 X" element4 [14] $end
$var wire 1 Y" element4 [13] $end
$var wire 1 Z" element4 [12] $end
$var wire 1 [" element4 [11] $end
$var wire 1 \" element4 [10] $end
$var wire 1 ]" element4 [9] $end
$var wire 1 ^" element4 [8] $end
$var wire 1 _" element4 [7] $end
$var wire 1 `" element4 [6] $end
$var wire 1 a" element4 [5] $end
$var wire 1 b" element4 [4] $end
$var wire 1 c" element4 [3] $end
$var wire 1 d" element4 [2] $end
$var wire 1 e" element4 [1] $end
$var wire 1 f" element4 [0] $end
$var wire 1 g" element5 [63] $end
$var wire 1 h" element5 [62] $end
$var wire 1 i" element5 [61] $end
$var wire 1 j" element5 [60] $end
$var wire 1 k" element5 [59] $end
$var wire 1 l" element5 [58] $end
$var wire 1 m" element5 [57] $end
$var wire 1 n" element5 [56] $end
$var wire 1 o" element5 [55] $end
$var wire 1 p" element5 [54] $end
$var wire 1 q" element5 [53] $end
$var wire 1 r" element5 [52] $end
$var wire 1 s" element5 [51] $end
$var wire 1 t" element5 [50] $end
$var wire 1 u" element5 [49] $end
$var wire 1 v" element5 [48] $end
$var wire 1 w" element5 [47] $end
$var wire 1 x" element5 [46] $end
$var wire 1 y" element5 [45] $end
$var wire 1 z" element5 [44] $end
$var wire 1 {" element5 [43] $end
$var wire 1 |" element5 [42] $end
$var wire 1 }" element5 [41] $end
$var wire 1 ~" element5 [40] $end
$var wire 1 !# element5 [39] $end
$var wire 1 "# element5 [38] $end
$var wire 1 ## element5 [37] $end
$var wire 1 $# element5 [36] $end
$var wire 1 %# element5 [35] $end
$var wire 1 &# element5 [34] $end
$var wire 1 '# element5 [33] $end
$var wire 1 (# element5 [32] $end
$var wire 1 )# element5 [31] $end
$var wire 1 *# element5 [30] $end
$var wire 1 +# element5 [29] $end
$var wire 1 ,# element5 [28] $end
$var wire 1 -# element5 [27] $end
$var wire 1 .# element5 [26] $end
$var wire 1 /# element5 [25] $end
$var wire 1 0# element5 [24] $end
$var wire 1 1# element5 [23] $end
$var wire 1 2# element5 [22] $end
$var wire 1 3# element5 [21] $end
$var wire 1 4# element5 [20] $end
$var wire 1 5# element5 [19] $end
$var wire 1 6# element5 [18] $end
$var wire 1 7# element5 [17] $end
$var wire 1 8# element5 [16] $end
$var wire 1 9# element5 [15] $end
$var wire 1 :# element5 [14] $end
$var wire 1 ;# element5 [13] $end
$var wire 1 <# element5 [12] $end
$var wire 1 =# element5 [11] $end
$var wire 1 ># element5 [10] $end
$var wire 1 ?# element5 [9] $end
$var wire 1 @# element5 [8] $end
$var wire 1 A# element5 [7] $end
$var wire 1 B# element5 [6] $end
$var wire 1 C# element5 [5] $end
$var wire 1 D# element5 [4] $end
$var wire 1 E# element5 [3] $end
$var wire 1 F# element5 [2] $end
$var wire 1 G# element5 [1] $end
$var wire 1 H# element5 [0] $end
$var wire 1 I# element6 [63] $end
$var wire 1 J# element6 [62] $end
$var wire 1 K# element6 [61] $end
$var wire 1 L# element6 [60] $end
$var wire 1 M# element6 [59] $end
$var wire 1 N# element6 [58] $end
$var wire 1 O# element6 [57] $end
$var wire 1 P# element6 [56] $end
$var wire 1 Q# element6 [55] $end
$var wire 1 R# element6 [54] $end
$var wire 1 S# element6 [53] $end
$var wire 1 T# element6 [52] $end
$var wire 1 U# element6 [51] $end
$var wire 1 V# element6 [50] $end
$var wire 1 W# element6 [49] $end
$var wire 1 X# element6 [48] $end
$var wire 1 Y# element6 [47] $end
$var wire 1 Z# element6 [46] $end
$var wire 1 [# element6 [45] $end
$var wire 1 \# element6 [44] $end
$var wire 1 ]# element6 [43] $end
$var wire 1 ^# element6 [42] $end
$var wire 1 _# element6 [41] $end
$var wire 1 `# element6 [40] $end
$var wire 1 a# element6 [39] $end
$var wire 1 b# element6 [38] $end
$var wire 1 c# element6 [37] $end
$var wire 1 d# element6 [36] $end
$var wire 1 e# element6 [35] $end
$var wire 1 f# element6 [34] $end
$var wire 1 g# element6 [33] $end
$var wire 1 h# element6 [32] $end
$var wire 1 i# element6 [31] $end
$var wire 1 j# element6 [30] $end
$var wire 1 k# element6 [29] $end
$var wire 1 l# element6 [28] $end
$var wire 1 m# element6 [27] $end
$var wire 1 n# element6 [26] $end
$var wire 1 o# element6 [25] $end
$var wire 1 p# element6 [24] $end
$var wire 1 q# element6 [23] $end
$var wire 1 r# element6 [22] $end
$var wire 1 s# element6 [21] $end
$var wire 1 t# element6 [20] $end
$var wire 1 u# element6 [19] $end
$var wire 1 v# element6 [18] $end
$var wire 1 w# element6 [17] $end
$var wire 1 x# element6 [16] $end
$var wire 1 y# element6 [15] $end
$var wire 1 z# element6 [14] $end
$var wire 1 {# element6 [13] $end
$var wire 1 |# element6 [12] $end
$var wire 1 }# element6 [11] $end
$var wire 1 ~# element6 [10] $end
$var wire 1 !$ element6 [9] $end
$var wire 1 "$ element6 [8] $end
$var wire 1 #$ element6 [7] $end
$var wire 1 $$ element6 [6] $end
$var wire 1 %$ element6 [5] $end
$var wire 1 &$ element6 [4] $end
$var wire 1 '$ element6 [3] $end
$var wire 1 ($ element6 [2] $end
$var wire 1 )$ element6 [1] $end
$var wire 1 *$ element6 [0] $end
$var wire 1 +$ element7 [63] $end
$var wire 1 ,$ element7 [62] $end
$var wire 1 -$ element7 [61] $end
$var wire 1 .$ element7 [60] $end
$var wire 1 /$ element7 [59] $end
$var wire 1 0$ element7 [58] $end
$var wire 1 1$ element7 [57] $end
$var wire 1 2$ element7 [56] $end
$var wire 1 3$ element7 [55] $end
$var wire 1 4$ element7 [54] $end
$var wire 1 5$ element7 [53] $end
$var wire 1 6$ element7 [52] $end
$var wire 1 7$ element7 [51] $end
$var wire 1 8$ element7 [50] $end
$var wire 1 9$ element7 [49] $end
$var wire 1 :$ element7 [48] $end
$var wire 1 ;$ element7 [47] $end
$var wire 1 <$ element7 [46] $end
$var wire 1 =$ element7 [45] $end
$var wire 1 >$ element7 [44] $end
$var wire 1 ?$ element7 [43] $end
$var wire 1 @$ element7 [42] $end
$var wire 1 A$ element7 [41] $end
$var wire 1 B$ element7 [40] $end
$var wire 1 C$ element7 [39] $end
$var wire 1 D$ element7 [38] $end
$var wire 1 E$ element7 [37] $end
$var wire 1 F$ element7 [36] $end
$var wire 1 G$ element7 [35] $end
$var wire 1 H$ element7 [34] $end
$var wire 1 I$ element7 [33] $end
$var wire 1 J$ element7 [32] $end
$var wire 1 K$ element7 [31] $end
$var wire 1 L$ element7 [30] $end
$var wire 1 M$ element7 [29] $end
$var wire 1 N$ element7 [28] $end
$var wire 1 O$ element7 [27] $end
$var wire 1 P$ element7 [26] $end
$var wire 1 Q$ element7 [25] $end
$var wire 1 R$ element7 [24] $end
$var wire 1 S$ element7 [23] $end
$var wire 1 T$ element7 [22] $end
$var wire 1 U$ element7 [21] $end
$var wire 1 V$ element7 [20] $end
$var wire 1 W$ element7 [19] $end
$var wire 1 X$ element7 [18] $end
$var wire 1 Y$ element7 [17] $end
$var wire 1 Z$ element7 [16] $end
$var wire 1 [$ element7 [15] $end
$var wire 1 \$ element7 [14] $end
$var wire 1 ]$ element7 [13] $end
$var wire 1 ^$ element7 [12] $end
$var wire 1 _$ element7 [11] $end
$var wire 1 `$ element7 [10] $end
$var wire 1 a$ element7 [9] $end
$var wire 1 b$ element7 [8] $end
$var wire 1 c$ element7 [7] $end
$var wire 1 d$ element7 [6] $end
$var wire 1 e$ element7 [5] $end
$var wire 1 f$ element7 [4] $end
$var wire 1 g$ element7 [3] $end
$var wire 1 h$ element7 [2] $end
$var wire 1 i$ element7 [1] $end
$var wire 1 j$ element7 [0] $end
$var wire 1 k$ element8 [63] $end
$var wire 1 l$ element8 [62] $end
$var wire 1 m$ element8 [61] $end
$var wire 1 n$ element8 [60] $end
$var wire 1 o$ element8 [59] $end
$var wire 1 p$ element8 [58] $end
$var wire 1 q$ element8 [57] $end
$var wire 1 r$ element8 [56] $end
$var wire 1 s$ element8 [55] $end
$var wire 1 t$ element8 [54] $end
$var wire 1 u$ element8 [53] $end
$var wire 1 v$ element8 [52] $end
$var wire 1 w$ element8 [51] $end
$var wire 1 x$ element8 [50] $end
$var wire 1 y$ element8 [49] $end
$var wire 1 z$ element8 [48] $end
$var wire 1 {$ element8 [47] $end
$var wire 1 |$ element8 [46] $end
$var wire 1 }$ element8 [45] $end
$var wire 1 ~$ element8 [44] $end
$var wire 1 !% element8 [43] $end
$var wire 1 "% element8 [42] $end
$var wire 1 #% element8 [41] $end
$var wire 1 $% element8 [40] $end
$var wire 1 %% element8 [39] $end
$var wire 1 &% element8 [38] $end
$var wire 1 '% element8 [37] $end
$var wire 1 (% element8 [36] $end
$var wire 1 )% element8 [35] $end
$var wire 1 *% element8 [34] $end
$var wire 1 +% element8 [33] $end
$var wire 1 ,% element8 [32] $end
$var wire 1 -% element8 [31] $end
$var wire 1 .% element8 [30] $end
$var wire 1 /% element8 [29] $end
$var wire 1 0% element8 [28] $end
$var wire 1 1% element8 [27] $end
$var wire 1 2% element8 [26] $end
$var wire 1 3% element8 [25] $end
$var wire 1 4% element8 [24] $end
$var wire 1 5% element8 [23] $end
$var wire 1 6% element8 [22] $end
$var wire 1 7% element8 [21] $end
$var wire 1 8% element8 [20] $end
$var wire 1 9% element8 [19] $end
$var wire 1 :% element8 [18] $end
$var wire 1 ;% element8 [17] $end
$var wire 1 <% element8 [16] $end
$var wire 1 =% element8 [15] $end
$var wire 1 >% element8 [14] $end
$var wire 1 ?% element8 [13] $end
$var wire 1 @% element8 [12] $end
$var wire 1 A% element8 [11] $end
$var wire 1 B% element8 [10] $end
$var wire 1 C% element8 [9] $end
$var wire 1 D% element8 [8] $end
$var wire 1 E% element8 [7] $end
$var wire 1 F% element8 [6] $end
$var wire 1 G% element8 [5] $end
$var wire 1 H% element8 [4] $end
$var wire 1 I% element8 [3] $end
$var wire 1 J% element8 [2] $end
$var wire 1 K% element8 [1] $end
$var wire 1 L% element8 [0] $end
$var wire 1 M% stall $end
$var wire 1 N% flush $end
$upscope $end
$enddefinitions $end
#0
$dumpvars
0!
1"
1b
0a
0`
0_
0^
0]
0\
0[
0Z
0Y
0X
0W
0V
0U
0T
0S
0R
0Q
0P
0O
0N
0M
0L
0K
0J
0I
0H
0G
0F
0E
0D
0C
0B
0A
0@
0?
0>
0=
0<
0;
0:
09
08
07
06
05
04
03
02
01
00
0/
0.
0-
0,
0+
0*
0)
0(
0'
0&
0%
0$
0#
0D!
1C!
0B!
0A!
0@!
0?!
0>!
0=!
0<!
0;!
0:!
09!
08!
07!
06!
05!
04!
03!
02!
01!
00!
0/!
0.!
0-!
0,!
0+!
0*!
0)!
0(!
0'!
0&!
0%!
0$!
0#!
0"!
0!!
0~
0}
0|
0{
0z
0y
0x
0w
0v
0u
0t
0s
0r
0q
0p
0o
0n
0m
0l
0k
0j
0i
0h
0g
0f
0e
0d
0c
1&"
1%"
0$"
0#"
0""
0!"
0~!
0}!
0|!
0{!
0z!
0y!
0x!
0w!
0v!
0u!
0t!
0s!
0r!
0q!
0p!
0o!
0n!
0m!
0l!
0k!
0j!
0i!
0h!
0g!
0f!
0e!
0d!
0c!
0b!
0a!
0`!
0_!
0^!
0]!
0\!
0[!
0Z!
0Y!
0X!
0W!
0V!
0U!
0T!
0S!
0R!
0Q!
0P!
0O!
0N!
0M!
0L!
0K!
0J!
0I!
0H!
0G!
0F!
0E!
0f"
0e"
1d"
0c"
0b"
0a"
0`"
0_"
0^"
0]"
0\"
0["
0Z"
0Y"
0X"
0W"
0V"
0U"
0T"
0S"
0R"
0Q"
0P"
0O"
0N"
0M"
0L"
0K"
0J"
0I"
0H"
0G"
0F"
0E"
0D"
0C"
0B"
0A"
0@"
0?"
0>"
0="
0<"
0;"
0:"
09"
08"
07"
06"
05"
04"
03"
02"
01"
00"
0/"
0."
0-"
0,"
0+"
0*"
0)"
0("
0'"
1H#
0G#
1F#
0E#
0D#
0C#
0B#
0A#
0@#
0?#
0>#
0=#
0<#
0;#
0:#
09#
08#
07#
06#
05#
04#
03#
02#
01#
00#
0/#
0.#
0-#
0,#
0+#
0*#
0)#
0(#
0'#
0&#
0%#
0$#
0##
0"#
0!#
0~"
0}"
0|"
0{"
0z"
0y"
0x"
0w"
0v"
0u"
0t"
0s"
0r"
0q"
0p"
0o"
0n"
0m"
0l"
0k"
0j"
0i"
0h"
0g"
0*$
1)$
1($
0'$
0&$
0%$
0$$
0#$
0"$
0!$
0~#
0}#
0|#
0{#
0z#
0y#
0x#
0w#
0v#
0u#
0t#
0s#
0r#
0q#
0p#
0o#
0n#
0m#
0l#
0k#
0j#
0i#
0h#
0g#
0f#
0e#
0d#
0c#
0b#
0a#
0`#
0_#
0^#
0]#
0\#
0[#
0Z#
0Y#
0X#
0W#
0V#
0U#
0T#
0S#
0R#
0Q#
0P#
0O#
0N#
0M#
0L#
0K#
0J#
0I#
1j$
1i$
1h$
0g$
0f$
0e$
0d$
0c$
0b$
0a$
0`$
0_$
0^$
0]$
0\$
0[$
0Z$
0Y$
0X$
0W$
0V$
0U$
0T$
0S$
0R$
0Q$
0P$
0O$
0N$
0M$
0L$
0K$
0J$
0I$
0H$
0G$
0F$
0E$
0D$
0C$
0B$
0A$
0@$
0?$
0>$
0=$
0<$
0;$
0:$
09$
08$
07$
06$
05$
04$
03$
02$
01$
00$
0/$
0.$
0-$
0,$
0+$
0L%
0K%
0J%
1I%
0H%
0G%
0F%
0E%
0D%
0C%
0B%
0A%
0@%
0?%
0>%
0=%
0<%
0;%
0:%
09%
08%
07%
06%
05%
04%
03%
02%
01%
00%
0/%
0.%
0-%
0,%
0+%
0*%
0)%
0(%
0'%
0&%
0%%
0$%
0#%
0"%
0!%
0~$
0}$
0|$
0{$
0z$
0y$
0x$
0w$
0v$
0u$
0t$
0s$
0r$
0q$
0p$
0o$
0n$
0m$
0l$
0k$
0M%
0N%
$end
#5
1!
#7
0"
#10
0!
#15
1!
#20
0!
#25
1!
#30
0!
#35
1!
#40
0!
#45
1!
#50
0!
#55
1!
#60
0!
#65
1!
#70
0!
#75
1!
#80
0!
#85
1!
#90
0!
#95
1!
#100
0!
#105
1!
#110
0!
#115
1!
#120
0!
#125
1!
#130
0!
#135
1!
#140
0!
#145
1!
1M%
#150
0!
#155
1!
0M%
#160
0!
#165
1!
#170
0!
#175
1!
1N%
#180
0!
#185
1!
0N%
#190
0!
#195
1!
#200
0!
#205
1!
#210
0!
#215
1!
#220
0!
#225
1!
#230
0!
#235
1!
0b
1a
#240
0!
#245
1!
1D!
0C!
1N%
#250
0!
#255
1!
0N%
#260
0!
#265
1!
#270
0!
#275
1!
#280
0!
#285
1!
#290
0!
#295
1!
#300
0!
#305
1!
#310
0!
#315
1!
1M%
#320
0!
#325
1!
0M%
#330
0!
#335
1!
#340
0!
#345
1!
1N%
#350
0!
#355
1!
0N%
#360
0!
#365
1!
#370
0!
#375
1!
#380
0!
#385
1!
#390
0!
#395
1!
#400
0!
#405
1!
1b
#410
0!
#415
1!
0&"
1N%
#420
0!
#425
1!
0N%
#430
0!
#435
1!
#440
0!
#445
1!
#450
0!
#455
1!
#460
0!
#465
1!
#470
0!
#475
1!
#480
0!
#485
1!
1M%
#490
0!
#495
1!
0M%
#500
0!
#505
1!
#510
0!
#515
1!
1N%
#520
0!
#525
1!
0N%
#530
0!
#535
1!
#540
0!
#545
1!
#550
0!
#555
1!
#560
0!
#565
1!
#570
0!
#575
1!
0b
0a
1`
#580
0!
#585
1!
1f"
1e"
0d"
1N%
#590
0!
#595
1!
0N%
#600
0!
#605
1!
#610
0!
#615
1!
#620
0!
#625
1!
#630
0!
#635
1!
#640
0!
#645
1!
#650
0!
#655
1!
1M%
#660
0!
#665
1!
0M%
#670
0!
#675
1!
#680
0!
#685
1!
1N%
#690
0!
#695
1!
0N%
#700
0!
#705
1!
#710
0!
#715
1!
#720
0!
#725
1!
#730
0!
#735
1!
#740
0!
#745
1!
1b
#750
0!
#755
1!
0H#
1N%
#760
0!
#765
1!
0N%
#770
0!
#775
1!
#780
0!
#785
1!
#790
0!
#795
1!
#800
0!
#805
1!
#810
0!
#815
1!
#820
0!
#825
1!
1M%
#830
0!
#835
1!
0M%
#840
0!
#845
1!
#850
0!
#855
1!
1N%
#860
0!
#865
1!
0N%
#870
0!
#875
1!
#880
0!
#885
1!
#890
0!
#895
1!
#900
0!
#905
1!
#910
0!
#915
1!
0b
1a
#920
0!
#925
1!
1*$
0)$
1N%
#930
0!
#935
1!
0N%
#940
0!
#945
1!
#950
0!
#955
1!
#960
0!
#965
1!
#970
0!
#975
1!
#980
0!
#985
1!
#990
0!
#995
1!
1M%
#1000
0!
#1005
1!
0M%
#1010
0!
#1015
1!
#1020
0!
#1025
1!
1N%
#1030
0!
#1035
1!
0N%
#1040
0!
#1045
1!
#1050
0!
#1055
1!
#1060
0!
#1065
1!
#1070
0!
#1075
1!
#1080
0!
#1085
1!
1b
#1090
0!
#1095
1!
0j$
1N%
#1100
0!
#1105
1!
0N%
#1110
0!
#1115
1!
#1120
0!
#1125
1!
#1130
0!
#1135
1!
#1140
0!
#1145
1!
#1150
0!
#1155
1!
#1160
0!
#1165
1!
1M%
#1170
0!
#1175
1!
0M%
#1180
0!
#1185
1!
#1190
0!
#1195
1!
1N%
#1200
0!
#1205
1!
0N%
#1210
0!
#1215
1!
#1220
0!
#1225
1!
#1230
0!
#1235
1!
#1240
0!
#1245
1!
#1250
0!
#1255
1!
0b
0a
0`
1_
#1260
0!
#1265
1!
1L%
1K%
1J%
0I%
1N%
#1270
0!
#1275
1!
0N%
#1280
0!
#1285
1!
#1290
0!
#1295
1!
#1300
0!
#1305
1!
#1310
0!
#1315
1!
#1320
0!
#1325
1!
#1330
0!
#1335
1!
1M%
#1340
0!
#1345
1!
0M%
#1350
0!
#1355
1!
#1360
0!
#1365
1!
#1370
0!
#1375
1!
1N%
#1380
0!
#1385
1!
0N%
#1390
0!
#1395
1!
#1400
0!
#1405
1!
#1410
0!
#1415
1!
1N%
#1420
0!
#1425
1!
0N%
#1430
0!
#1435
1!
#1440
0!
#1445
1!
#1450
0!
#1455
1!
#1460
0!
#1465
1!
#1470
0!
#1475
1!
1N%
#1480
0!
#1485
1!
0N%
#1490
0!
#1495
1!
#1500
0!
#1505
1!
#1510
0!
#1515
1!
#1520
0!
#1525
1!
#1530
0!
#1535
1!
#1540
0!
#1545
1!
#1550
0!
#1555
1!
#1560
0!
#1565
1!
#1570
0!
#1575
1!
#1580
0!
#1585
1!
#1590
0!
#1595
1!
#1600
0!
#1605
1!
1M%
#1610
0!
#1615
1!
0M%
#1620
0!
#1625
1!
#1630
0!
#1635
1!
1N%
#1640
0!
#1645
1!
0N%
#1650
0!
#1655
1!
#1660
0!
#1665
1!
#1670
0!
#1675
1!
#1680
0!
#1685
1!
#1690
0!
#1695
1!
0D!
1C!
#1700
0!
#1705
1!
1&"
0%"
1N%
#1710
0!
#1715
1!
0N%
#1720
0!
#1725
1!
#1730
0!
#1735
1!
#1740
0!
#1745
1!
#1750
0!
#1755
1!
#1760
0!
#1765
1!
#1770
0!
#1775
1!
1M%
#1780
0!
#1785
1!
0M%
#1790
0!
#1795
1!
#1800
0!
#1805
1!
1N%
#1810
0!
#1815
1!
0N%
#1820
0!
#1825
1!
#1830
0!
#1835
1!
#1840
0!
#1845
1!
#1850
0!
#1855
1!
#1860
0!
#1865
1!
1D!
#1870
0!
#1875
1!
0f"
1N%
#1880
0!
#1885
1!
0N%
#1890
0!
#1895
1!
#1900
0!
#1905
1!
#1910
0!
#1915
1!
#1920
0!
#1925
1!
#1930
0!
#1935
1!
#1940
0!
#1945
1!
1M%
#1950
0!
#1955
1!
0M%
#1960
0!
#1965
1!
#1970
0!
#1975
1!
1N%
#1980
0!
#1985
1!
0N%
#1990
0!
#1995
1!
#2000
0!
#2005
1!
#2010
0!
#2015
1!
#2020
0!
#2025
1!
#2030
0!
#2035
1!
0D!
0C!
1B!
#2040
0!
#2045
1!
1H#
1G#
0F#
1N%
#2050
0!
#2055
1!
0N%
#2060
0!
#2065
1!
#2070
0!
#2075
1!
#2080
0!
#2085
1!
#2090
0!
#2095
1!
#2100
0!
#2105
1!
#2110
0!
#2115
1!
1M%
#2120
0!
#2125
1!
0M%
#2130
0!
#2135
1!
#2140
0!
#2145
1!
1N%
#2150
0!
#2155
1!
0N%
#2160
0!
#2165
1!
#2170
0!
#2175
1!
#2180
0!
#2185
1!
#2190
0!
#2195
1!
#2200
0!
#2205
1!
1D!
#2210
0!
#2215
1!
0*$
1N%
#2220
0!
#2225
1!
0N%
#2230
0!
#2235
1!
#2240
0!
#2245
1!
#2250
0!
#2255
1!
#2260
0!
#2265
1!
#2270
0!
#2275
1!
#2280
0!
#2285
1!
1M%
#2290
0!
#2295
1!
0M%
#2300
0!
#2305
1!
#2310
0!
#2315
1!
1N%
#2320
0!
#2325
1!
0N%
#2330
0!
#2335
1!
#2340
0!
#2345
1!
#2350
0!
#2355
1!
#2360
0!
#2365
1!
#2370
0!
#2375
1!
0D!
1C!
#2380
0!
